Introduction to Machine Learning
…
```
## <150/50/200>
```

```r
training_df <- training(df_split) # the trainig set
testting_df <- testing(df_split)  # the test set

training_df
```

```
## # A tibble: 150 x 2
##          x          y
##      <dbl>      <dbl>
##  1 -0.0866   -0.00804
##  2  1.17     -6.59   
##  3  0.116    -7.16   
##  4 -2.93   -112.     
##  5  0.678     4.28   
##  6  1.12     -1.01   
##  7  1.28     -4.55   
##  8 -0.976     1.99   
##  9  0.991     1.95   
## 10 -1.53    -31.6    
## # ... with 140 more rows
```
…
---
# Set Search Range for Lambda

```r
cv_tune <- cv_data %>% 
  crossing(lambda = 1:6)

cv_tune
```

```
## # A tibble: 30 x 5
##    splits           id    train              validate          lambda
##    <list>           <chr> <list>             <list>             <int>
##  1 <split [120/30]> Fold1 <tibble [120 x 2]> <tibble [30 x 2]>      1
##  2 <split [120/30]> Fold1 <tibble [120 x 2]> <tibble [30 x 2]>      2
##  3 <split [120/30]> Fold1 <tibble [120 x 2]> <tibble [30 x 2]>      3
##  4 <split [120/30]> Fold1 <tibble [120 x 2]> <tibble [30 x 2]>      4
##  5 <split [120/30]> Fold1 <tibble [120 x 2]> <tibble [30 x 2]>      5
##  6 <split [120/30]> Fold1 <tibble [120 x 2]> <tibble [30 x 2]>      6
##  7 <split [120/30]> Fold2 <tibble [120 x 2]> <tibble [30 x 2]>      1
##  8 <split [120/30]> Fold2 <tibble [120 x 2]> <tibble [30 x 2]>      2
##  9 <split [120/30]> Fold2 <tibble [120 x 2]> <tibble [30 x 2]>      3
## 10 <split [120/30]> Fold2 <tibble [120 x 2]> <tibble [30 x 2]>      4
## # ... with 20 more rows
```
…
